<?xml version="1.0" encoding="utf-8"?>
<!-- Generator: Adobe Illustrator 22.0.0, SVG Export Plug-In . SVG Version: 6.00 Build 0)  -->
<svg version="1.1" id="Capa_1" xmlns="http://www.w3.org/2000/svg" xmlns:xlink="http://www.w3.org/1999/xlink" x="0px" y="0px"
	 viewBox="0 0 25.9 22" style="enable-background:new 0 0 25.9 22;" xml:space="preserve">
<path d="M25.2,8.9c-0.6-0.2-1.4,0.1-2.1,0.8C23,9.8,22.9,9.9,22.8,10c-0.2-0.3-0.5-0.6-0.8-0.7c-0.1,0-0.2-0.1-0.3-0.1l0.2-0.6
	c0.3-0.8-0.2-1.8-1-2L4.5,1.3C4.1,1.2,3.6,1.2,3.2,1.4C2.8,1.6,2.6,1.9,2.4,2.3l-2,6c-0.3,0.8,0.2,1.8,1,2l5.8,1.9V15
	c-1,0.3-1.9,1.1-2.1,2.1H1.2v1.5h3.9c0.3,1.3,1.5,2.2,2.8,2.2c1.6,0,2.9-1.3,2.9-2.9c0-1.4-1-2.6-2.3-2.9v-2.3l9.3,3.1h0
	c0.2,0.1,0.3,0.1,0.5,0.1c0.5,0,0.9-0.2,1.2-0.6c0.1,0.1,0.3,0.2,0.4,0.2l0,0c0.1,0,0.3,0.1,0.4,0.1c0.2,0,0.4-0.1,0.6-0.2
	c0.1,0,0.1-0.1,0.1-0.1c0,0.1,0,0.1,0,0.2c0.1,1,0.6,1.7,1.2,1.9l0.3,0.1L25.6,9L25.2,8.9z M9.9,17.9c0,1.1-0.9,1.9-1.9,1.9
	S6,18.9,6,17.9s0.9-1.9,1.9-1.9S9.9,16.8,9.9,17.9z M18.2,14.7L1.8,9.3C1.5,9.2,1.4,8.9,1.5,8.6l2-6c0-0.1,0.1-0.2,0.3-0.3
	c0.1-0.1,0.3-0.1,0.4,0l16.4,5.4c0.3,0.1,0.4,0.4,0.3,0.7l-0.6,1.8c0,0,0,0,0,0l-0.4,1.3l-0.9,2.8C18.8,14.6,18.5,14.8,18.2,14.7z
	 M20.8,14.3c0,0.1-0.1,0.1-0.2,0.2c-0.1,0-0.2,0-0.2,0c-0.2-0.1-0.3-0.2-0.2-0.4l1.1-3.5c0.1-0.2,0.2-0.3,0.4-0.2
	c0.1,0,0.1,0.1,0.2,0.2c0,0.1,0,0.2,0,0.2L20.8,14.3z M22.4,16.5c-0.2-0.2-0.4-0.6-0.5-1.1c0-0.3,0-0.7,0-1.1l1-3.2c0,0,0,0,0-0.1
	c0.2-0.3,0.4-0.7,0.7-0.9c0.4-0.4,0.7-0.6,1.1-0.6L22.4,16.5z"/>
</svg>
